归档 | 微信公众号 RStata
…
df4 

#> # A tibble: 2,054 × 25
#>    省     县     行政区域面积    乡    镇 街道办事处 户籍人口 地区生产总值
#>    <chr>  <chr>         <dbl> <dbl> <dbl>      <dbl>    <dbl>        <dbl>
#>  1 安徽省 肥东县         2182     6    12         NA    108.       8114070
#>  2 安徽省 肥西县         1695     4     8         NA     85.6     10186781
#>  3 安徽省 庐江县         2344    NA    17         NA    120        5471895
#>  4 安徽省 巢湖市         2046    NA    12          5     85.4      5231019
#>  5 安徽省 湾社区          650    NA     5         NA     35.4      3831248
#>  6 安徽省 长丰县         1841     2    12         NA     81.1      7619440
#>  7 安徽省 繁昌区          585    NA     6         NA     27.2      3641111
#>  8 安徽省 南陵县         1264    NA     8         NA     54.3      3206882
#>  9 安徽省 无为市         2022    NA    20         NA    119.       5770037
#> 10 安徽省 怀远县         2192     1    17         NA    134.       3562589
#> # ℹ 2,044 more rows
#> # ℹ 17 more variables: 第一产业增加值 <dbl>, 第二产业增加值 <dbl>,
#> #   第三产业增加值 <dbl>, 地方一般公共预算收入 <dbl>,
#> #   地方一般公共预算支出 <dbl>, 住户存款余额 <dbl>,
#> #   年末金融机构各项贷款余额 <dbl>, 设施农业种植占地面积 <dbl>, 油料产量 <dbl>,
#> #   棉花产量 <dbl>, 规模以上工业企业 <dbl>, 固定电话用户 <dbl>,
#> #   普通中学在校学生 <dbl>, 小学在校学生 <dbl>, 医疗卫生机构床位 <dbl>, …
…
# 查看 省-县 的组合有无重复的
countydb %>% 
  group_by(省, 县) %>% 
  mutate(n = n()) %>% 
  arrange(desc(n)) %>% 
  ungroup() -> countydb 

# 这些重复的可能会影响下一步的匹配，所以先删除了
countydb %>% 
  filter(n <= 1) -> countycode1 
countycode1 
#> # A tibble: 2,862 × 7
#>    省     省代码 市     市代码 县     县代码     n
#>    <chr>   <dbl> <chr>   <dbl> <chr>  <chr>  <int>
#>  1 安徽省 340000 安庆市 340800 大观区 340803     1
#>  2 安徽省 340000 安庆市 340800 怀宁县 340822     1
#>  3 安徽省 340000 安庆市 340800 潜山市 340882     1
#>  4 安徽省 340000 安庆市 340800 宿松县 340826     1
#>  5 安徽省 340000 安庆市 340800 太湖县 340825     1
#>  6 安徽省 340000 安庆市 340800 桐城市 340881     1
#>  7 安徽省 340000 安庆市 340800 望江县 340827     1
#>  8 安徽省 340000 安庆市 340800 宜秀区 340811     1
#>  9 安徽省 340000 安庆市 340800 迎江区 340802     1
#> 10 安徽省 340000 安庆市 340800 岳西县 340828     1
#> # ℹ 2,852 more rows

首先匹配下看看能成功多少：

# tidylog 包的 join 族函数可以显示匹配效果：
df4 %>% 
  tidylog::left_join(countycode1) 
#> # A tibble: 2,054 × 30
#>    省     县     行政区域面积    乡    镇 街道办事处 户籍人口 地区生产总值
#>    <chr>  <chr>         <dbl> <dbl> <dbl>      <dbl>    <dbl>        <dbl>
#>  1 安徽省 肥东县         2182     6    12         NA    108.       8114070
#>  2 安徽省 肥西县         1695     4     8         NA     85.6     10186781
#>  3 安徽省 庐江县         2344    NA    17         NA    120        5471895
#>  4 安徽省 巢湖市         2046    NA    12          5     85.4      5231019
#>  5 安徽省 湾社区          650    NA     5         NA     35.4      3831248
#>  6 安徽省 长丰县         1841     2    12         NA     81.1      7619440
#>  7 安徽省 繁昌区          585    NA     6         NA     27.2      3641111
#>  8 安徽省 南陵县         1264    NA     8         NA     54.3      3206882
#>  9 安徽省 无为市         2022    NA    20         NA    119.       5770037
#> 10 安徽省 怀远县         2192     1    17         NA    134.       3562589
#> # ℹ 2,044 more rows
#> # ℹ 22 more variables: 第一产业增加值 <dbl>, 第二产业增加值 <dbl>,
#> #   第三产业增加值 <dbl>, 地方一般公共预算收入 <dbl>,
#> #   地方一般公共预算支出 <dbl>, 住户存款余额 <dbl>,
#> #   年末金融机构各项贷款余额 <dbl>, 设施农业种植占地面积 <dbl>, 油料产量 <dbl>,
#> #   棉花产量 <dbl>, 规模以上工业企业 <dbl>, 固定电话用户 <dbl>,
#> #   普通中学在校学生 <dbl>, 小学在校学生 <dbl>, 医疗卫生机构床位 <dbl>, …

查看匹配失败的：

# 查看匹配失败的 
df4 %>% 
  tidylog::anti_join(countycode1) 
#> # A tibble: 168 × 25
#>    省     县        行政区域面积    乡    镇 街道办事处 户籍人口 地区生产总值
#>    <chr>  <chr>            <dbl> <dbl> <dbl>      <dbl>    <dbl>        <dbl>
#>  1 安徽省 湾社区             650    NA     5         NA     35.4      3831248
#>  2 安徽省 滩溪县            1982    NA    11         NA    114.       5407788
#>  3 安徽省 板阳县            1473     1    15         NA     78.7      1882758
#>  4 安徽省 夥县               857     3     5         NA      9.2       509979
#>  5 安徽省 扬山县            1197    NA    13         NA    101.       2544835
#>  6 重庆市 由日 忠县         2187     6    19          4     96.2      4885521
#>  7 重庆市 新都区             497    NA     2          7     85.6     10001115
#>  8 福建省 沙县区            1799     4     6          2     27.1      3544375
#>  9 福建省 龙海区            1320     2    11          1     91.2     12657788
#> 10 福建省 长泰区             900     1     4         NA     21.1      3752268
#> # ℹ 158 more rows
#> # ℹ 17 more variables: 第一产业增加值 <dbl>, 第二产业增加值 <dbl>,
#> #   第三产业增加值 <dbl>, 地方一般公共预算收入 <dbl>,
#> #   地方一般公共预算支出 <dbl>, 住户存款余额 <dbl>,
#> #   年末金融机构各项贷款余额 <dbl>, 设施农业种植占地面积 <dbl>, 油料产量 <dbl>,
#> #   棉花产量 <dbl>, 规模以上工业企业 <dbl>, 固定电话用户 <dbl>,
#> #   普通中学在校学生 <dbl>, 小学在校学生 <dbl>, 医疗卫生机构床位 <dbl>, …

可以看到很多是由于空格和杂乱字符导致的匹配失败，所以我们先去除：

df4 %>% 
  tidylog::mutate(县 = str_remove_all(县, "[\\s;:]")) -> df4 
然后再匹配：

df4 %>% 
  tidylog::anti_join(countycode1) 
#> # A tibble: 83 × 25
#>    省     县       行政区域面积    乡    镇 街道办事处 户籍人口 地区生产总值
#>    <chr>  <chr>           <dbl> <dbl> <dbl>      <dbl>    <dbl>        <dbl>
#>  1 安徽省 湾社区            650    NA     5         NA     35.4      3831248
#>  2 安徽省 滩溪县           1982    NA    11         NA    114.       5407788
#>  3 安徽省 板阳县           1473     1    15         NA     78.7      1882758
#>  4 安徽省 夥县              857     3     5         NA      9.2       509979
#>  5 安徽省 扬山县           1197    NA    13         NA    101.       2544835
#>  6 重庆市 由日忠县         2187     6    19          4     96.2      4885521
#>  7 重庆市 新都区            497    NA     2          7     85.6     10001115
#>  8 福建省 沙县区           1799     4     6          2     27.1      3544375
#>  9 福建省 龙海区           1320     2    11          1     91.2     12657788
#> 10 福建省 长泰区            900     1     4         NA     21.1      3752268
#> # ℹ 73 more rows
#> # ℹ 17 more variables: 第一产业增加值 <dbl>, 第二产业增加值 <dbl>,
#> #   第三产业增加值 <dbl>, 地方一般公共预算收入 <dbl>,
#> #   地方一般公共预算支出 <dbl>, 住户存款余额 <dbl>,
#> #   年末金融机构各项贷款余额 <dbl>, 设施农业种植占地面积 <dbl>, 油料产量 <dbl>,
#> #   棉花产量 <dbl>, 规模以上工业企业 <dbl>, 固定电话用户 <dbl>,
#> #   普通中学在校学生 <dbl>, 小学在校学生 <dbl>, 医疗卫生机构床位 <dbl>, …
…
