归档 | 微信公众号 RStata
…
    2021-12-07

    今天有个培训班的小伙伴问了一个这样的问题：

老师，分面facet的时候，想把每个小图的标题带个特殊符号该怎么操作呢。举个例子，原来分面出来的标题是1/2/3现在想改成1℃/2℃/3℃

解决方法有很多，这里提供一种。

首先我们找个绘制分面图的案例：

library(tidyverse)
iris %>% 
  as_tibble()
#> # A tibble: 150 x 5
#>    Sepal.Length Sepal.Width Petal.Length Petal.Width Species
#>           <dbl>       <dbl>        <dbl>       <dbl> <fct>  
#>  1          5.1         3.5          1.4         0.2 setosa 
#>  2          4.9         3            1.4         0.2 setosa 
#>  3          4.7         3.2          1.3         0.2 setosa 
#>  4          4.6         3.1          1.5         0.2 setosa 
#>  5          5           3.6          1.4         0.2 setosa 
#>  6          5.4         3.9          1.7         0.4 setosa 
#>  7          4.6         3.4          1.4         0.3 setosa 
#>  8          5           3.4          1.5         0.2 setosa 
#>  9          4.4         2.9          1.4         0.2 setosa 
#> 10          4.9         3.1          1.5         0.1 setosa 
#> # … with 140 more rows
…
